[INFO] Scanning for projects...
[INFO] ------------------------------------------------------------------------
[INFO] Reactor Build Order:
[INFO] 
[INFO] DSpace Addon Modules
[INFO] DSpace Kernel :: Additions and Local Customizations
[INFO] DSpace XML-UI (Manakin) :: Local Customizations
[INFO] DSpace LNI :: Local Customizations
[INFO] DSpace JSP-UI :: Local Customizations
[INFO] DSpace SWORD :: Local Customizations
[INFO] DSpace SWORD v2 :: Local Customizations
[INFO] DSpace SOLR :: Local Customizations
[INFO] DSpace OAI 2.0 :: Local Customizations
[INFO] DSpace Assembly and Configuration
[INFO]                                                                         
[INFO] ------------------------------------------------------------------------
[INFO] Building DSpace Addon Modules 3.1
[INFO] ------------------------------------------------------------------------
[INFO] 
[INFO] --- maven-enforcer-plugin:1.0:enforce (enforce-maven) @ modules ---
[INFO]                                                                         
[INFO] ------------------------------------------------------------------------
[INFO] Building DSpace Kernel :: Additions and Local Customizations 3.1
[INFO] ------------------------------------------------------------------------
[INFO] 
[INFO] --- maven-enforcer-plugin:1.0:enforce (enforce-maven) @ additions ---
[INFO] 
[INFO] --- maven-resources-plugin:2.5:resources (default-resources) @ additions ---
[debug] execute contextualize
[INFO] Using 'UTF-8' encoding to copy filtered resources.
[INFO] Copying 1 resource
[INFO] 
[INFO] --- maven-compiler-plugin:2.3.2:compile (default-compile) @ additions ---
[INFO] Nothing to compile - all classes are up to date
[INFO] 
[INFO] --- maven-resources-plugin:2.5:testResources (default-testResources) @ additions ---
[debug] execute contextualize
[INFO] Using 'UTF-8' encoding to copy filtered resources.
[INFO] skip non existing resourceDirectory /home/dspace/dspace-3.1-src-release/dspace/modules/additions/src/test/resources
[INFO] 
[INFO] --- maven-compiler-plugin:2.3.2:testCompile (default-testCompile) @ additions ---
[INFO] Not compiling test sources
[INFO] 
[INFO] --- maven-surefire-plugin:2.6:test (default-test) @ additions ---
[INFO] Tests are skipped.
[INFO] 
[INFO] --- maven-jar-plugin:2.3.2:jar (default-jar) @ additions ---
[INFO]                                                                         
[INFO] ------------------------------------------------------------------------
[INFO] Building DSpace XML-UI (Manakin) :: Local Customizations 3.1
[INFO] ------------------------------------------------------------------------
[INFO] 
[INFO] --- maven-enforcer-plugin:1.0:enforce (enforce-maven) @ xmlui ---
[INFO] 
[INFO] --- maven-resources-plugin:2.5:resources (default-resources) @ xmlui ---
[debug] execute contextualize
[INFO] Using 'UTF-8' encoding to copy filtered resources.
[INFO] skip non existing resourceDirectory /home/dspace/dspace-3.1-src-release/dspace/modules/xmlui/src/main/resources
[INFO] 
[INFO] --- maven-compiler-plugin:2.3.2:compile (default-compile) @ xmlui ---
[INFO] No sources to compile
[INFO] 
[INFO] --- maven-resources-plugin:2.5:testResources (default-testResources) @ xmlui ---
[debug] execute contextualize
[INFO] Using 'UTF-8' encoding to copy filtered resources.
[INFO] skip non existing resourceDirectory /home/dspace/dspace-3.1-src-release/dspace/modules/xmlui/src/test/resources
[INFO] 
[INFO] --- maven-compiler-plugin:2.3.2:testCompile (default-testCompile) @ xmlui ---
[INFO] Not compiling test sources
[INFO] 
[INFO] --- maven-surefire-plugin:2.6:test (default-test) @ xmlui ---
[INFO] Tests are skipped.
[INFO] 
[INFO] --- maven-war-plugin:2.1.1:war (default-war) @ xmlui ---
[INFO] Packaging webapp
[INFO] Assembling webapp [xmlui] in [/home/dspace/dspace-3.1-src-release/dspace/modules/xmlui/target/xmlui-3.1]
[INFO] Processing war project
[INFO] Copying webapp webResources [/home/dspace/dspace-3.1-src-release/dspace/modules/xmlui/src/main/webapp] to [/home/dspace/dspace-3.1-src-release/dspace/modules/xmlui/target/xmlui-3.1]
[INFO] Copying webapp resources [/home/dspace/dspace-3.1-src-release/dspace/modules/xmlui/src/main/webapp]
[INFO] Processing overlay [ id org.dspace:dspace-xmlui-lang]
[INFO] Processing overlay [ id org.dspace:dspace-xmlui]
[INFO] Webapp assembled in [1295 msecs]
[INFO] Building war: /home/dspace/dspace-3.1-src-release/dspace/modules/xmlui/target/xmlui-3.1.war
[INFO] WEB-INF/web.xml already added, skipping
[INFO]                                                                         
[INFO] ------------------------------------------------------------------------
[INFO] Building DSpace LNI :: Local Customizations 3.1
[INFO] ------------------------------------------------------------------------
[INFO] 
[INFO] --- maven-enforcer-plugin:1.0:enforce (enforce-maven) @ lni ---
[INFO] 
[INFO] --- maven-resources-plugin:2.5:resources (default-resources) @ lni ---
[debug] execute contextualize
[INFO] Using 'UTF-8' encoding to copy filtered resources.
[INFO] skip non existing resourceDirectory /home/dspace/dspace-3.1-src-release/dspace/modules/lni/src/main/resources
[INFO] 
[INFO] --- maven-compiler-plugin:2.3.2:compile (default-compile) @ lni ---
[INFO] No sources to compile
[INFO] 
[INFO] --- maven-resources-plugin:2.5:testResources (default-testResources) @ lni ---
[debug] execute contextualize
[INFO] Using 'UTF-8' encoding to copy filtered resources.
[INFO] skip non existing resourceDirectory /home/dspace/dspace-3.1-src-release/dspace/modules/lni/src/test/resources
[INFO] 
[INFO] --- maven-compiler-plugin:2.3.2:testCompile (default-testCompile) @ lni ---
[INFO] Not compiling test sources
[INFO] 
[INFO] --- maven-surefire-plugin:2.6:test (default-test) @ lni ---
[INFO] Tests are skipped.
[INFO] 
[INFO] --- maven-war-plugin:2.1.1:war (default-war) @ lni ---
[INFO] Packaging webapp
[INFO] Assembling webapp [lni] in [/home/dspace/dspace-3.1-src-release/dspace/modules/lni/target/lni-3.1]
[INFO] Processing war project
[INFO] Copying webapp webResources [/home/dspace/dspace-3.1-src-release/dspace/modules/lni/src/main/webapp] to [/home/dspace/dspace-3.1-src-release/dspace/modules/lni/target/lni-3.1]
[INFO] Copying webapp resources [/home/dspace/dspace-3.1-src-release/dspace/modules/lni/src/main/webapp]
[INFO] Processing overlay [ id org.dspace:dspace-lni]
[INFO] Webapp assembled in [239 msecs]
[INFO] Building war: /home/dspace/dspace-3.1-src-release/dspace/modules/lni/target/lni-3.1.war
[INFO] WEB-INF/web.xml already added, skipping
[INFO]                                                                         
[INFO] ------------------------------------------------------------------------
[INFO] Building DSpace JSP-UI :: Local Customizations 3.1
[INFO] ------------------------------------------------------------------------
[INFO] 
[INFO] --- maven-enforcer-plugin:1.0:enforce (enforce-maven) @ jspui ---
[INFO] 
[INFO] --- maven-resources-plugin:2.5:resources (default-resources) @ jspui ---
[debug] execute contextualize
[INFO] Using 'UTF-8' encoding to copy filtered resources.
[INFO] skip non existing resourceDirectory /home/dspace/dspace-3.1-src-release/dspace/modules/jspui/src/main/resources
[INFO] 
[INFO] --- maven-compiler-plugin:2.3.2:compile (default-compile) @ jspui ---
[INFO] No sources to compile
[INFO] 
[INFO] --- maven-resources-plugin:2.5:testResources (default-testResources) @ jspui ---
[debug] execute contextualize
[INFO] Using 'UTF-8' encoding to copy filtered resources.
[INFO] skip non existing resourceDirectory /home/dspace/dspace-3.1-src-release/dspace/modules/jspui/src/test/resources
[INFO] 
[INFO] --- maven-compiler-plugin:2.3.2:testCompile (default-testCompile) @ jspui ---
[INFO] Not compiling test sources
[INFO] 
[INFO] --- maven-surefire-plugin:2.6:test (default-test) @ jspui ---
[INFO] Tests are skipped.
[INFO] 
[INFO] --- maven-war-plugin:2.1.1:war (default-war) @ jspui ---
[INFO] Packaging webapp
[INFO] Assembling webapp [jspui] in [/home/dspace/dspace-3.1-src-release/dspace/modules/jspui/target/jspui-3.1]
[INFO] Processing war project
[INFO] Copying webapp webResources [/home/dspace/dspace-3.1-src-release/dspace/modules/jspui/src/main/webapp] to [/home/dspace/dspace-3.1-src-release/dspace/modules/jspui/target/jspui-3.1]
[INFO] Copying webapp resources [/home/dspace/dspace-3.1-src-release/dspace/modules/jspui/src/main/webapp]
[INFO] Processing overlay [ id org.dspace:dspace-jspui]
[INFO] Webapp assembled in [539 msecs]
[INFO] Building war: /home/dspace/dspace-3.1-src-release/dspace/modules/jspui/target/jspui-3.1.war
[INFO] WEB-INF/web.xml already added, skipping
[INFO]                                                                         
[INFO] ------------------------------------------------------------------------
[INFO] Building DSpace SWORD :: Local Customizations 3.1
[INFO] ------------------------------------------------------------------------
[INFO] 
[INFO] --- maven-enforcer-plugin:1.0:enforce (enforce-maven) @ sword ---
[INFO] 
[INFO] --- maven-resources-plugin:2.5:resources (default-resources) @ sword ---
[debug] execute contextualize
[INFO] Using 'UTF-8' encoding to copy filtered resources.
[INFO] skip non existing resourceDirectory /home/dspace/dspace-3.1-src-release/dspace/modules/sword/src/main/resources
[INFO] 
[INFO] --- maven-compiler-plugin:2.3.2:compile (default-compile) @ sword ---
[INFO] No sources to compile
[INFO] 
[INFO] --- maven-resources-plugin:2.5:testResources (default-testResources) @ sword ---
[debug] execute contextualize
[INFO] Using 'UTF-8' encoding to copy filtered resources.
[INFO] skip non existing resourceDirectory /home/dspace/dspace-3.1-src-release/dspace/modules/sword/src/test/resources
[INFO] 
[INFO] --- maven-compiler-plugin:2.3.2:testCompile (default-testCompile) @ sword ---
[INFO] Not compiling test sources
[INFO] 
[INFO] --- maven-surefire-plugin:2.6:test (default-test) @ sword ---
[INFO] Tests are skipped.
[INFO] 
[INFO] --- maven-war-plugin:2.1.1:war (default-war) @ sword ---
[INFO] Packaging webapp
[INFO] Assembling webapp [sword] in [/home/dspace/dspace-3.1-src-release/dspace/modules/sword/target/sword-3.1]
[INFO] Processing war project
[INFO] Copying webapp webResources [/home/dspace/dspace-3.1-src-release/dspace/modules/sword/src/main/webapp] to [/home/dspace/dspace-3.1-src-release/dspace/modules/sword/target/sword-3.1]
[INFO] Copying webapp resources [/home/dspace/dspace-3.1-src-release/dspace/modules/sword/src/main/webapp]
[INFO] Processing overlay [ id org.dspace:dspace-sword]
[INFO] Webapp assembled in [264 msecs]
[INFO] Building war: /home/dspace/dspace-3.1-src-release/dspace/modules/sword/target/sword-3.1.war
[INFO] WEB-INF/web.xml already added, skipping
[INFO]                                                                         
[INFO] ------------------------------------------------------------------------
[INFO] Building DSpace SWORD v2 :: Local Customizations 3.1
[INFO] ------------------------------------------------------------------------
[INFO] 
[INFO] --- maven-enforcer-plugin:1.0:enforce (enforce-maven) @ swordv2 ---
[INFO] 
[INFO] --- maven-resources-plugin:2.5:resources (default-resources) @ swordv2 ---
[debug] execute contextualize
[INFO] Using 'UTF-8' encoding to copy filtered resources.
[INFO] skip non existing resourceDirectory /home/dspace/dspace-3.1-src-release/dspace/modules/swordv2/src/main/resources
[INFO] 
[INFO] --- maven-compiler-plugin:2.3.2:compile (default-compile) @ swordv2 ---
[INFO] No sources to compile
[INFO] 
[INFO] --- maven-resources-plugin:2.5:testResources (default-testResources) @ swordv2 ---
[debug] execute contextualize
[INFO] Using 'UTF-8' encoding to copy filtered resources.
[INFO] skip non existing resourceDirectory /home/dspace/dspace-3.1-src-release/dspace/modules/swordv2/src/test/resources
[INFO] 
[INFO] --- maven-compiler-plugin:2.3.2:testCompile (default-testCompile) @ swordv2 ---
[INFO] Not compiling test sources
[INFO] 
[INFO] --- maven-surefire-plugin:2.6:test (default-test) @ swordv2 ---
[INFO] Tests are skipped.
[INFO] 
[INFO] --- maven-war-plugin:2.1.1:war (default-war) @ swordv2 ---
[INFO] Packaging webapp
[INFO] Assembling webapp [swordv2] in [/home/dspace/dspace-3.1-src-release/dspace/modules/swordv2/target/swordv2-3.1]
[INFO] Processing war project
[INFO] Copying webapp webResources [/home/dspace/dspace-3.1-src-release/dspace/modules/swordv2/src/main/webapp] to [/home/dspace/dspace-3.1-src-release/dspace/modules/swordv2/target/swordv2-3.1]
[INFO] Copying webapp resources [/home/dspace/dspace-3.1-src-release/dspace/modules/swordv2/src/main/webapp]
[INFO] Processing overlay [ id org.dspace:dspace-swordv2]
[INFO] Processing overlay [ id org.swordapp:server]
[INFO] Webapp assembled in [231 msecs]
[INFO] Building war: /home/dspace/dspace-3.1-src-release/dspace/modules/swordv2/target/swordv2-3.1.war
[INFO] WEB-INF/web.xml already added, skipping
[INFO]                                                                         
[INFO] ------------------------------------------------------------------------
[INFO] Building DSpace SOLR :: Local Customizations 3.1
[INFO] ------------------------------------------------------------------------
[INFO] 
[INFO] --- maven-enforcer-plugin:1.0:enforce (enforce-maven) @ solr ---
[INFO] 
[INFO] --- maven-resources-plugin:2.5:resources (default-resources) @ solr ---
[debug] execute contextualize
[INFO] Using 'UTF-8' encoding to copy filtered resources.
[INFO] skip non existing resourceDirectory /home/dspace/dspace-3.1-src-release/dspace/modules/solr/src/main/resources
[INFO] 
[INFO] --- maven-compiler-plugin:2.3.2:compile (default-compile) @ solr ---
[INFO] No sources to compile
[INFO] 
[INFO] --- maven-resources-plugin:2.5:testResources (default-testResources) @ solr ---
[debug] execute contextualize
[INFO] Using 'UTF-8' encoding to copy filtered resources.
[INFO] skip non existing resourceDirectory /home/dspace/dspace-3.1-src-release/dspace/modules/solr/src/test/resources
[INFO] 
[INFO] --- maven-compiler-plugin:2.3.2:testCompile (default-testCompile) @ solr ---
[INFO] Not compiling test sources
[INFO] 
[INFO] --- maven-surefire-plugin:2.6:test (default-test) @ solr ---
[INFO] Tests are skipped.
[INFO] 
[INFO] --- maven-war-plugin:2.1.1:war (default-war) @ solr ---
[INFO] Packaging webapp
[INFO] Assembling webapp [solr] in [/home/dspace/dspace-3.1-src-release/dspace/modules/solr/target/solr-3.1]
[INFO] Processing war project
[INFO] Processing overlay [ id org.apache.solr:solr]
[INFO] Processing overlay [ id org.dspace:dspace-solr:skinny]
[INFO] Webapp assembled in [209 msecs]
[INFO] Building war: /home/dspace/dspace-3.1-src-release/dspace/modules/solr/target/solr-3.1.war
[INFO] WEB-INF/web.xml already added, skipping
[INFO]                                                                         
[INFO] ------------------------------------------------------------------------
[INFO] Building DSpace OAI 2.0 :: Local Customizations 3.1
[INFO] ------------------------------------------------------------------------
[INFO] 
[INFO] --- maven-enforcer-plugin:1.0:enforce (enforce-maven) @ oai ---
[INFO] 
[INFO] --- maven-resources-plugin:2.5:resources (default-resources) @ oai ---
[debug] execute contextualize
[INFO] Using 'UTF-8' encoding to copy filtered resources.
[INFO] skip non existing resourceDirectory /home/dspace/dspace-3.1-src-release/dspace/modules/oai/src/main/resources
[INFO] 
[INFO] --- maven-compiler-plugin:2.3.2:compile (default-compile) @ oai ---
[INFO] No sources to compile
[INFO] 
[INFO] --- maven-resources-plugin:2.5:testResources (default-testResources) @ oai ---
[debug] execute contextualize
[INFO] Using 'UTF-8' encoding to copy filtered resources.
[INFO] skip non existing resourceDirectory /home/dspace/dspace-3.1-src-release/dspace/modules/oai/src/test/resources
[INFO] 
[INFO] --- maven-compiler-plugin:2.3.2:testCompile (default-testCompile) @ oai ---
[INFO] Not compiling test sources
[INFO] 
[INFO] --- maven-surefire-plugin:2.6:test (default-test) @ oai ---
[INFO] Tests are skipped.
[INFO] 
[INFO] --- maven-war-plugin:2.1.1:war (default-war) @ oai ---
[INFO] Packaging webapp
[INFO] Assembling webapp [oai] in [/home/dspace/dspace-3.1-src-release/dspace/modules/oai/target/oai-3.1]
[INFO] Processing war project
[INFO] Copying webapp webResources [/home/dspace/dspace-3.1-src-release/dspace/modules/oai/src/main/webapp] to [/home/dspace/dspace-3.1-src-release/dspace/modules/oai/target/oai-3.1]
[INFO] Copying webapp resources [/home/dspace/dspace-3.1-src-release/dspace/modules/oai/src/main/webapp]
[INFO] Processing overlay [ id org.dspace:dspace-oai]
[INFO] Webapp assembled in [240 msecs]
[INFO] Building war: /home/dspace/dspace-3.1-src-release/dspace/modules/oai/target/oai-3.1.war
[INFO] WEB-INF/web.xml already added, skipping
[INFO]                                                                         
[INFO] ------------------------------------------------------------------------
[INFO] Building DSpace Assembly and Configuration 3.1
[INFO] ------------------------------------------------------------------------
[INFO] 
[INFO] --- maven-enforcer-plugin:1.0:enforce (enforce-maven) @ dspace ---
[INFO] 
[INFO] --- maven-assembly-plugin:2.2.1:single (default) @ dspace ---
[INFO] Reading assembly descriptor: src/main/assembly/assembly.xml
[WARNING] NOTE: Currently, inclusion of module dependencies may produce unpredictable results if a version conflict occurs.
[WARNING] NOTE: Currently, inclusion of module dependencies may produce unpredictable results if a version conflict occurs.
[WARNING] Cannot include project artifact: org.dspace:dspace:pom:3.1; it doesn't have an associated file or directory.
[INFO] lib/dspace-oai-3.1-classes.jar already added, skipping
[INFO] lib/xoai-2.2.9.jar already added, skipping
[INFO] lib/log4j-1.2.14.jar already added, skipping
[INFO] lib/commons-codec-1.3.jar already added, skipping
[INFO] lib/xalan-2.7.0.jar already added, skipping
[INFO] lib/xml-apis-1.3.02.jar already added, skipping
[INFO] lib/jaxb-impl-2.2.5.jar already added, skipping
[INFO] lib/httpclient-4.2.1.jar already added, skipping
[INFO] lib/httpcore-4.2.1.jar already added, skipping
[INFO] lib/commons-logging-1.1.1.jar already added, skipping
[INFO] lib/commons-lang3-3.1.jar already added, skipping
[INFO] lib/dspace-api-3.1.jar already added, skipping
[INFO] lib/handle-6.2.jar already added, skipping
[INFO] lib/jargon-1.4.25.jar already added, skipping
[INFO] lib/mets-1.5.2.jar already added, skipping
[INFO] lib/dspace-tm-extractors-1.0.1.jar already added, skipping
[INFO] lib/poi-3.6.jar already added, skipping
[INFO] lib/xmlunit-1.1.jar already added, skipping
[INFO] lib/lucene-core-3.5.0.jar already added, skipping
[INFO] lib/lucene-analyzers-3.5.0.jar already added, skipping
[INFO] lib/commons-cli-1.0.jar already added, skipping
[INFO] lib/commons-lang-2.6.jar already added, skipping
[INFO] lib/commons-collections-3.2.jar already added, skipping
[INFO] lib/commons-dbcp-1.4.jar already added, skipping
[INFO] lib/commons-pool-1.4.jar already added, skipping
[INFO] lib/commons-fileupload-1.2.1.jar already added, skipping
[INFO] lib/commons-httpclient-3.1.jar already added, skipping
[INFO] lib/commons-io-2.3.jar already added, skipping
[INFO] lib/mail-1.4.jar already added, skipping
[INFO] lib/activation-1.1.jar already added, skipping
[INFO] lib/jaxen-1.1.jar already added, skipping
[INFO] lib/dom4j-1.6.1.jar already added, skipping
[INFO] lib/jdom-1.0.jar already added, skipping
[INFO] lib/xercesImpl-2.8.1.jar already added, skipping
[INFO] lib/oro-2.0.8.jar already added, skipping
[INFO] lib/pdfbox-1.6.0.jar already added, skipping
[INFO] lib/fontbox-1.6.0.jar already added, skipping
[INFO] lib/jempbox-1.6.0.jar already added, skipping
[INFO] lib/bcprov-jdk15-1.44.jar already added, skipping
[INFO] lib/bcmail-jdk15-1.44.jar already added, skipping
[INFO] lib/poi-scratchpad-3.6.jar already added, skipping
[INFO] lib/poi-ooxml-3.6.jar already added, skipping
[INFO] lib/poi-ooxml-schemas-3.6.jar already added, skipping
[INFO] lib/xmlbeans-2.3.0.jar already added, skipping
[INFO] lib/stax-api-1.0.1.jar already added, skipping
[INFO] lib/geronimo-stax-api_1.0_spec-1.0.1.jar already added, skipping
[INFO] lib/rome-1.0.0.jar already added, skipping
[INFO] lib/opensearch-0.1.jar already added, skipping
[INFO] lib/xmlParserAPIs-2.0.2.jar already added, skipping
[INFO] lib/icu4j-3.8.jar already added, skipping
[INFO] lib/oclc-harvester2-0.1.12.jar already added, skipping
[INFO] lib/dspace-services-3.1.jar already added, skipping
[INFO] lib/slf4j-api-1.5.6.jar already added, skipping
[INFO] lib/spring-context-support-3.1.1.RELEASE.jar already added, skipping
[INFO] lib/spring-beans-3.1.1.RELEASE.jar already added, skipping
[INFO] lib/spring-core-3.1.1.RELEASE.jar already added, skipping
[INFO] lib/spring-asm-3.1.1.RELEASE.jar already added, skipping
[INFO] lib/spring-context-3.1.1.RELEASE.jar already added, skipping
[INFO] lib/spring-aop-3.1.1.RELEASE.jar already added, skipping
[INFO] lib/aopalliance-1.0.jar already added, skipping
[INFO] lib/spring-expression-3.1.1.RELEASE.jar already added, skipping
[INFO] lib/ehcache-core-1.7.2.jar already added, skipping
[INFO] lib/slf4j-log4j12-1.5.6.jar already added, skipping
[INFO] lib/rome-modules-1.0.jar already added, skipping
[INFO] lib/rome-1.0.jar already added, skipping
[INFO] lib/biblio-transformation-engine-0.82.jar already added, skipping
[INFO] lib/dom4j-1.7-20060614.jar already added, skipping
[INFO] lib/jaxme-api-0.3.jar already added, skipping
[INFO] lib/xsdlib-20030807.jar already added, skipping
[INFO] lib/relaxngDatatype-20030807.jar already added, skipping
[INFO] lib/pull-parser-2.1.10.jar already added, skipping
[INFO] lib/xpp3-1.1.3.3.jar already added, skipping
[INFO] lib/junitperf-1.8.jar already added, skipping
[INFO] lib/opencsv-2.3.jar already added, skipping
[INFO] lib/jena-2.6.4.jar already added, skipping
[INFO] lib/iri-0.8.jar already added, skipping
[INFO] lib/jxl-2.6.jar already added, skipping
[INFO] lib/jbibtex-1.0.0.jar already added, skipping
[INFO] lib/solr-solrj-3.3.0.jar already added, skipping
[INFO] lib/wstx-asl-3.2.7.jar already added, skipping
[INFO] lib/commons-configuration-1.8.jar already added, skipping
[INFO] lib/dspace-geoip-1.2.3.jar already added, skipping
[INFO] lib/ant-1.7.0.jar already added, skipping
[INFO] lib/ant-launcher-1.7.0.jar already added, skipping
[INFO] lib/dnsjava-2.0.6.jar already added, skipping
[INFO] lib/elasticsearch-0.18.6.jar already added, skipping
[INFO] lib/lucene-highlighter-3.5.0.jar already added, skipping
[INFO] lib/lucene-memory-3.5.0.jar already added, skipping
[INFO] lib/lucene-queries-3.5.0.jar already added, skipping
[INFO] lib/jakarta-regexp-1.4.jar already added, skipping
[INFO] lib/gson-2.2.1.jar already added, skipping
[INFO] lib/postgresql-9.1-901-1.jdbc4.jar already added, skipping
[INFO] lib/zookeeper-3.3.1.jar already added, skipping
[INFO] lib/jline-0.9.94.jar already added, skipping
[INFO] lib/guava-13.0.jar already added, skipping
[INFO] lib/servlet-api-2.4.jar already added, skipping
[INFO] lib/dspace-api-lang-3.0.3.jar already added, skipping
[INFO] lib/ant-contrib-1.0b3.jar already added, skipping
[INFO] Copying files to /home/dspace/dspace-3.1-src-release/dspace/target/dspace-3.1-build
[INFO] lib/dspace-oai-3.1-classes.jar already added, skipping
[INFO] lib/xoai-2.2.9.jar already added, skipping
[INFO] lib/log4j-1.2.14.jar already added, skipping
[INFO] lib/commons-codec-1.3.jar already added, skipping
[INFO] lib/xalan-2.7.0.jar already added, skipping
[INFO] lib/xml-apis-1.3.02.jar already added, skipping
[INFO] lib/jaxb-impl-2.2.5.jar already added, skipping
[INFO] lib/httpclient-4.2.1.jar already added, skipping
[INFO] lib/httpcore-4.2.1.jar already added, skipping
[INFO] lib/commons-logging-1.1.1.jar already added, skipping
[INFO] lib/commons-lang3-3.1.jar already added, skipping
[INFO] lib/dspace-api-3.1.jar already added, skipping
[INFO] lib/handle-6.2.jar already added, skipping
[INFO] lib/jargon-1.4.25.jar already added, skipping
[INFO] lib/mets-1.5.2.jar already added, skipping
[INFO] lib/dspace-tm-extractors-1.0.1.jar already added, skipping
[INFO] lib/poi-3.6.jar already added, skipping
[INFO] lib/xmlunit-1.1.jar already added, skipping
[INFO] lib/lucene-core-3.5.0.jar already added, skipping
[INFO] lib/lucene-analyzers-3.5.0.jar already added, skipping
[INFO] lib/commons-cli-1.0.jar already added, skipping
[INFO] lib/commons-lang-2.6.jar already added, skipping
[INFO] lib/commons-collections-3.2.jar already added, skipping
[INFO] lib/commons-dbcp-1.4.jar already added, skipping
[INFO] lib/commons-pool-1.4.jar already added, skipping
[INFO] lib/commons-fileupload-1.2.1.jar already added, skipping
[INFO] lib/commons-httpclient-3.1.jar already added, skipping
[INFO] lib/commons-io-2.3.jar already added, skipping
[INFO] lib/mail-1.4.jar already added, skipping
[INFO] lib/activation-1.1.jar already added, skipping
[INFO] lib/jaxen-1.1.jar already added, skipping
[INFO] lib/dom4j-1.6.1.jar already added, skipping
[INFO] lib/jdom-1.0.jar already added, skipping
[INFO] lib/xercesImpl-2.8.1.jar already added, skipping
[INFO] lib/oro-2.0.8.jar already added, skipping
[INFO] lib/pdfbox-1.6.0.jar already added, skipping
[INFO] lib/fontbox-1.6.0.jar already added, skipping
[INFO] lib/jempbox-1.6.0.jar already added, skipping
[INFO] lib/bcprov-jdk15-1.44.jar already added, skipping
[INFO] lib/bcmail-jdk15-1.44.jar already added, skipping
[INFO] lib/poi-scratchpad-3.6.jar already added, skipping
[INFO] lib/poi-ooxml-3.6.jar already added, skipping
[INFO] lib/poi-ooxml-schemas-3.6.jar already added, skipping
[INFO] lib/xmlbeans-2.3.0.jar already added, skipping
[INFO] lib/stax-api-1.0.1.jar already added, skipping
[INFO] lib/geronimo-stax-api_1.0_spec-1.0.1.jar already added, skipping
[INFO] lib/rome-1.0.0.jar already added, skipping
[INFO] lib/opensearch-0.1.jar already added, skipping
[INFO] lib/xmlParserAPIs-2.0.2.jar already added, skipping
[INFO] lib/icu4j-3.8.jar already added, skipping
[INFO] lib/oclc-harvester2-0.1.12.jar already added, skipping
[INFO] lib/dspace-services-3.1.jar already added, skipping
[INFO] lib/slf4j-api-1.5.6.jar already added, skipping
[INFO] lib/spring-context-support-3.1.1.RELEASE.jar already added, skipping
[INFO] lib/spring-beans-3.1.1.RELEASE.jar already added, skipping
[INFO] lib/spring-core-3.1.1.RELEASE.jar already added, skipping
[INFO] lib/spring-asm-3.1.1.RELEASE.jar already added, skipping
[INFO] lib/spring-context-3.1.1.RELEASE.jar already added, skipping
[INFO] lib/spring-aop-3.1.1.RELEASE.jar already added, skipping
[INFO] lib/aopalliance-1.0.jar already added, skipping
[INFO] lib/spring-expression-3.1.1.RELEASE.jar already added, skipping
[INFO] lib/ehcache-core-1.7.2.jar already added, skipping
[INFO] lib/slf4j-log4j12-1.5.6.jar already added, skipping
[INFO] lib/rome-modules-1.0.jar already added, skipping
[INFO] lib/rome-1.0.jar already added, skipping
[INFO] lib/biblio-transformation-engine-0.82.jar already added, skipping
[INFO] lib/dom4j-1.7-20060614.jar already added, skipping
[INFO] lib/jaxme-api-0.3.jar already added, skipping
[INFO] lib/xsdlib-20030807.jar already added, skipping
[INFO] lib/relaxngDatatype-20030807.jar already added, skipping
[INFO] lib/pull-parser-2.1.10.jar already added, skipping
[INFO] lib/xpp3-1.1.3.3.jar already added, skipping
[INFO] lib/junitperf-1.8.jar already added, skipping
[INFO] lib/opencsv-2.3.jar already added, skipping
[INFO] lib/jena-2.6.4.jar already added, skipping
[INFO] lib/iri-0.8.jar already added, skipping
[INFO] lib/jxl-2.6.jar already added, skipping
[INFO] lib/jbibtex-1.0.0.jar already added, skipping
[INFO] lib/solr-solrj-3.3.0.jar already added, skipping
[INFO] lib/wstx-asl-3.2.7.jar already added, skipping
[INFO] lib/commons-configuration-1.8.jar already added, skipping
[INFO] lib/dspace-geoip-1.2.3.jar already added, skipping
[INFO] lib/ant-1.7.0.jar already added, skipping
[INFO] lib/ant-launcher-1.7.0.jar already added, skipping
[INFO] lib/dnsjava-2.0.6.jar already added, skipping
[INFO] lib/elasticsearch-0.18.6.jar already added, skipping
[INFO] lib/lucene-highlighter-3.5.0.jar already added, skipping
[INFO] lib/lucene-memory-3.5.0.jar already added, skipping
[INFO] lib/lucene-queries-3.5.0.jar already added, skipping
[INFO] lib/jakarta-regexp-1.4.jar already added, skipping
[INFO] lib/gson-2.2.1.jar already added, skipping
[INFO] lib/postgresql-9.1-901-1.jdbc4.jar already added, skipping
[INFO] lib/zookeeper-3.3.1.jar already added, skipping
[INFO] lib/jline-0.9.94.jar already added, skipping
[INFO] lib/guava-13.0.jar already added, skipping
[INFO] lib/servlet-api-2.4.jar already added, skipping
[INFO] lib/dspace-api-lang-3.0.3.jar already added, skipping
[INFO] lib/ant-contrib-1.0b3.jar already added, skipping
[INFO] ------------------------------------------------------------------------
[INFO] Reactor Summary:
[INFO] 
[INFO] DSpace Addon Modules .............................. SUCCESS [0.435s]
[INFO] DSpace Kernel :: Additions and Local Customizations  SUCCESS [1.112s]
[INFO] DSpace XML-UI (Manakin) :: Local Customizations ... SUCCESS [7.709s]
[INFO] DSpace LNI :: Local Customizations ................ SUCCESS [4.139s]
[INFO] DSpace JSP-UI :: Local Customizations ............. SUCCESS [4.743s]
[INFO] DSpace SWORD :: Local Customizations .............. SUCCESS [4.117s]
[INFO] DSpace SWORD v2 :: Local Customizations ........... SUCCESS [4.205s]
[INFO] DSpace SOLR :: Local Customizations ............... SUCCESS [1.057s]
[INFO] DSpace OAI 2.0 :: Local Customizations ............ SUCCESS [4.542s]
[INFO] DSpace Assembly and Configuration ................. SUCCESS [8.678s]
[INFO] ------------------------------------------------------------------------
[INFO] BUILD SUCCESS
[INFO] ------------------------------------------------------------------------
[INFO] Total time: 41.291s
[INFO] Finished at: Mon Sep 16 19:12:48 BRT 2013
[INFO] Final Memory: 18M/253M
[INFO] ------------------------------------------------------------------------
